[
  {
    "title": "Event",
    "is_pro": false,
    "type": "elementor",
    "author": "Kortez Themes",
    "keywords": ["event", "multipurpose"],
    "categories": ["business"],
    "template_url": {
      "content": "https://gitlab.com/kortezthemes/kortez-toolset-demos/-/raw/main/demos/event-free/content.json",
      "options": "https://gitlab.com/kortezthemes/kortez-toolset-demos/-/raw/main/demos/event-free/options.json",
      "widgets": "https://gitlab.com/kortezthemes/kortez-toolset-demos/-/raw/main/demos/event-free/widgets.json"
    },
    "screenshot_url": "https://gitlab.com/kortezthemes/kortez-toolset-demos/-/raw/main/screenshots/event-free-250-300.jpg",
    "demo_url": "https://demo.kortezthemes.com/kortez/event-free/",
    "plugins": []
  },
  {
    "title": "Event Pro",
    "is_pro": true,
    "type": "elementor",
    "author": "Kortez Themes",
    "keywords": ["event", "multipurpose"],
    "categories": ["business"],
    "template_url": {},
    "screenshot_url": "https://gitlab.com/kortezthemes/kortez-toolset-demos/-/raw/main/screenshots/event-250-300.jpg",
    "demo_url": "https://demo.kortezthemes.com/kortez/event/",
    "plugins": []
  },
  {
    "title": "Blog",
    "is_pro": true,
    "type": "gutenberg",
    "author": "Kortez Themes",
    "keywords": ["lifestyle", "blog", "multipurpose"],
    "categories": ["blog"],
    "template_url": {},
    "screenshot_url": "https://gitlab.com/kortezthemes/kortez-toolset-demos/-/raw/main/screenshots/lifestyle-blog-250-300.jpg",
    "demo_url": "https://demo.kortezthemes.com/kortez/lifestyle-blog/",
    "plugins": []
  },
  {
    "title": "Construction",
    "is_pro": true,
    "type": "elementor",
    "author": "Kortez Themes",
    "keywords": ["construction", "multipurpose"],
    "categories": ["business"],
    "template_url": {},
    "screenshot_url": "https://gitlab.com/kortezthemes/kortez-toolset-demos/-/raw/main/screenshots/construction-250-300.jpg",
    "demo_url": "https://demo.kortezthemes.com/kortez/construction/",
    "plugins": []
  },
  {
    "title": "Auto",
    "is_pro": true,
    "type": "elementor",
    "author": "Kortez Themes",
    "keywords": ["auto", "multipurpose"],
    "categories": ["business"],
    "template_url": {},
    "screenshot_url": "https://gitlab.com/kortezthemes/kortez-toolset-demos/-/raw/main/screenshots/auto-250-300.jpg",
    "demo_url": "https://demo.kortezthemes.com/kortez/auto/",
    "plugins": []
  },
  {
    "title": "Charity",
    "is_pro": true,
    "type": "elementor",
    "author": "Kortez Themes",
    "keywords": ["charity", "multipurpose"],
    "categories": ["non-profit"],
    "template_url": {},
    "screenshot_url": "https://gitlab.com/kortezthemes/kortez-toolset-demos/-/raw/main/screenshots/charity-250-300.jpg",
    "demo_url": "https://demo.kortezthemes.com/kortez/charity/",
    "plugins": []
  },
  {
    "title": "Agency",
    "is_pro": true,
    "type": "elementor",
    "author": "Kortez Themes",
    "keywords": ["agency", "multipurpose"],
    "categories": ["business"],
    "template_url": {},
    "screenshot_url": "https://gitlab.com/kortezthemes/kortez-toolset-demos/-/raw/main/screenshots/agency-250-300.jpg",
    "demo_url": "https://demo.kortezthemes.com/kortez/agency/",
    "plugins": []
  },
  {
    "title": "Corporate",
    "is_pro": true,
    "type": "elementor",
    "author": "Kortez Themes",
    "keywords": ["corporate", "multipurpose"],
    "categories": ["business"],
    "template_url": {},
    "screenshot_url": "https://gitlab.com/kortezthemes/kortez-toolset-demos/-/raw/main/screenshots/corporate-250-300.jpg",
    "demo_url": "https://demo.kortezthemes.com/kortez/corporate/",
    "plugins": []
  },
  {
    "title": "Education",
    "is_pro": true,
    "type": "elementor",
    "author": "Kortez Themes",
    "keywords": ["education", "multipurpose"],
    "categories": ["others"],
    "template_url": {},
    "screenshot_url": "https://gitlab.com/kortezthemes/kortez-toolset-demos/-/raw/main/screenshots/education-250-300.jpg",
    "demo_url": "https://demo.kortezthemes.com/kortez/education/",
    "plugins": []
  },
  {
    "title": "Insurance",
    "is_pro": true,
    "type": "elementor",
    "author": "Kortez Themes",
    "keywords": ["insurance", "multipurpose"],
    "categories": ["others"],
    "template_url": {},
    "screenshot_url": "https://gitlab.com/kortezthemes/kortez-toolset-demos/-/raw/main/screenshots/insurance-250-300.jpg",
    "demo_url": "https://demo.kortezthemes.com/kortez/insurance/",
    "plugins": []
  },
  {
    "title": "Finance",
    "is_pro": true,
    "type": "elementor",
    "author": "Kortez Themes",
    "keywords": ["finance", "multipurpose"],
    "categories": ["business"],
    "template_url": {},
    "screenshot_url": "https://gitlab.com/kortezthemes/kortez-toolset-demos/-/raw/main/screenshots/finance-250-300.jpg",
    "demo_url": "https://demo.kortezthemes.com/kortez/finance/",
    "plugins": []
  },
  {
    "title": "Business",
    "is_pro": true,
    "type": "elementor",
    "author": "Kortez Themes",
    "keywords": ["business", "multipurpose"],
    "categories": ["business"],
    "template_url": {},
    "screenshot_url": "https://gitlab.com/kortezthemes/kortez-toolset-demos/-/raw/main/screenshots/business-250-300.jpg",
    "demo_url": "https://demo.kortezthemes.com/kortez/business/",
    "plugins": []
  },
  {
    "title": "Lawyer",
    "is_pro": true,
    "type": "elementor",
    "author": "Kortez Themes",
    "keywords": ["lawyer", "multipurpose"],
    "categories": ["business"],
    "template_url": {},
    "screenshot_url": "https://gitlab.com/kortezthemes/kortez-toolset-demos/-/raw/main/screenshots/lawyer-250-300.jpg",
    "demo_url": "https://demo.kortezthemes.com/kortez/lawyer/",
    "plugins": []
  },
  {
    "title": "Marketing",
    "is_pro": true,
    "type": "elementor",
    "author": "Kortez Themes",
    "keywords": ["marketing", "multipurpose"],
    "categories": ["business"],
    "template_url": {},
    "screenshot_url": "https://gitlab.com/kortezthemes/kortez-toolset-demos/-/raw/main/screenshots/marketing-250-300.jpg",
    "demo_url": "https://demo.kortezthemes.com/kortez/marketing/",
    "plugins": []
  },
  {
    "title": "Medical",
    "is_pro": true,
    "type": "elementor",
    "author": "Kortez Themes",
    "keywords": ["medical", "multipurpose"],
    "categories": ["others"],
    "template_url": {},
    "screenshot_url": "https://gitlab.com/kortezthemes/kortez-toolset-demos/-/raw/main/screenshots/medical-250-300.jpg",
    "demo_url": "https://demo.kortezthemes.com/kortez/medical/",
    "plugins": []
  },
  {
    "title": "Music",
    "is_pro": true,
    "type": "elementor",
    "author": "Kortez Themes",
    "keywords": ["music", "multipurpose"],
    "categories": ["others"],
    "template_url": {},
    "screenshot_url": "https://gitlab.com/kortezthemes/kortez-toolset-demos/-/raw/main/screenshots/music-250-300.jpg",
    "demo_url": "https://demo.kortezthemes.com/kortez/music/",
    "plugins": []
  },
  {
    "title": "Photography",
    "is_pro": true,
    "type": "elementor",
    "author": "Kortez Themes",
    "keywords": ["photography", "multipurpose"],
    "categories": ["others"],
    "template_url": {},
    "screenshot_url": "https://gitlab.com/kortezthemes/kortez-toolset-demos/-/raw/main/screenshots/photography-250-300.jpg",
    "demo_url": "https://demo.kortezthemes.com/kortez/photography/",
    "plugins": []
  },
  {
    "title": "Portfolio",
    "is_pro": true,
    "type": "elementor",
    "author": "Kortez Themes",
    "keywords": ["portfolio", "multipurpose"],
    "categories": ["business"],
    "template_url": {},
    "screenshot_url": "https://gitlab.com/kortezthemes/kortez-toolset-demos/-/raw/main/screenshots/portfolio-250-300.jpg",
    "demo_url": "https://demo.kortezthemes.com/kortez/portfolio/",
    "plugins": []
  },
  {
    "title": "Restaurant",
    "is_pro": true,
    "type": "elementor",
    "author": "Kortez Themes",
    "keywords": ["restaurant", "multipurpose"],
    "categories": ["business"],
    "template_url": {},
    "screenshot_url": "https://gitlab.com/kortezthemes/kortez-toolset-demos/-/raw/main/screenshots/restaurant-250-300.jpg",
    "demo_url": "https://demo.kortezthemes.com/kortez/restaurant/",
    "plugins": []
  },
  {
    "title": "Travel",
    "is_pro": true,
    "type": "elementor",
    "author": "Kortez Themes",
    "keywords": ["travel", "multipurpose"],
    "categories": ["business"],
    "template_url": {},
    "screenshot_url": "https://gitlab.com/kortezthemes/kortez-toolset-demos/-/raw/main/screenshots/travel-250-300.jpg",
    "demo_url": "https://demo.kortezthemes.com/kortez/travel/",
    "plugins": []
  },
  {
    "title": "Yoga",
    "is_pro": true,
    "type": "elementor",
    "author": "Kortez Themes",
    "keywords": ["yoga", "multipurpose"],
    "categories": ["others"],
    "template_url": {},
    "screenshot_url": "https://gitlab.com/kortezthemes/kortez-toolset-demos/-/raw/main/screenshots/yoga-250-300.jpg",
    "demo_url": "https://demo.kortezthemes.com/kortez/yoga/",
    "plugins": []
  }
]
